<?xml version="1.0" encoding="utf-8"?>
<!-- Generator: Adobe Illustrator 23.0.2, SVG Export Plug-In . SVG Version: 6.00 Build 0)  -->
<svg version="1.1" id="Layer_1" xmlns="http://www.w3.org/2000/svg" xmlns:xlink="http://www.w3.org/1999/xlink" x="0px" y="0px"
	 viewBox="0 0 15 25" style="enable-background:new 0 0 15 25;" xml:space="preserve">
<style type="text/css">
	.st0{fill:#1D1D1B;}
</style>
<title>Icon / Social / Facebook</title>
<desc>Created with Sketch.</desc>
<path id="Layouts" class="st0" d="M13.9,0l-3.3,0C6.9,0,4.5,2.4,4.5,6.2V9H1.1C0.9,9,0.6,9.2,0.6,9.5v4.1c0,0.3,0.2,0.5,0.5,0.5h3.3
	v10.4C4.5,24.8,4.7,25,5,25h4.3c0.3,0,0.5-0.2,0.5-0.5V14.1h3.9c0.3,0,0.5-0.2,0.5-0.5l0-4.1c0-0.1-0.1-0.3-0.2-0.4
	C14,9,13.8,9,13.7,9H9.8V6.6c0-1.2,0.3-1.7,1.8-1.7l2.2,0c0.3,0,0.5-0.2,0.5-0.5V0.5C14.4,0.2,14.1,0,13.9,0"/>
</svg>
