<?xml version="1.0" encoding="utf-8"?>
<!-- Generator: Adobe Illustrator 23.0.2, SVG Export Plug-In . SVG Version: 6.00 Build 0)  -->
<svg version="1.1" id="Layer_1" xmlns="http://www.w3.org/2000/svg" xmlns:xlink="http://www.w3.org/1999/xlink" x="0px" y="0px"
	 viewBox="0 0 820 300" style="enable-background:new 0 0 820 300;" xml:space="preserve">
<style type="text/css">
	.st0{fill:#0084BD;}
</style>
<title>Colour / Blue</title>
<desc>Created with Sketch.</desc>
<g id="Symbols">
	<g transform="translate(80.000000, -100.000000)">
		<g transform="translate(-80.000000, 100.000000)">
			<g id="Mask" transform="translate(410.000000, 150.000000) scale(-1, 1) translate(-410.000000, -150.000000) ">
				<polygon class="st0" points="0,300 730,258.6 820,21.4 60,0 				"/>
			</g>
		</g>
	</g>
</g>
</svg>
