<?xml version="1.0" encoding="UTF-8"?>
<svg width="70px" height="66px" viewBox="0 0 70 66" version="1.1" xmlns="http://www.w3.org/2000/svg" xmlns:xlink="http://www.w3.org/1999/xlink">
    <!-- Generator: Sketch 52.6 (67491) - http://www.bohemiancoding.com/sketch -->
    <title>Path 3</title>
    <desc>Created with Sketch.</desc>
    <g id="Symbols" stroke="none" stroke-width="1" fill="none" fill-rule="evenodd">
        <g id="Elements-/-Navigation-/-Full-Alernative" transform="translate(-450.000000, 1.000000)" fill="#009FE4" fill-rule="nonzero">
            <polygon id="Path-3" points="520 -0.109375 520 55 450 65 450 6.19088114e-13"></polygon>
        </g>
    </g>
</svg>